…
**Database of vertebrate home range sizes.Import from classfiles**


```r
homerange <- readr::read_csv("~/Desktop/FRS_417/class_files-master/Tamburelloetal_HomeRangeDatabase.csv")
```

```r
homerange
```

```
## # A tibble: 569 x 24
##    taxon common.name class order family genus species primarymethod N    
##    <chr> <chr>       <chr> <chr> <chr>  <chr> <chr>   <chr>         <chr>
##  1 lake… american e… acti… angu… angui… angu… rostra… telemetry     16   
##  2 rive… blacktail … acti… cypr… catos… moxo… poecil… mark-recaptu… <NA> 
##  3 rive… central st… acti… cypr… cypri… camp… anomal… mark-recaptu… 20   
##  4 rive… rosyside d… acti… cypr… cypri… clin… fundul… mark-recaptu… 26   
##  5 rive… longnose d… acti… cypr… cypri… rhin… catara… mark-recaptu… 17   
##  6 rive… muskellunge acti… esoc… esoci… esox  masqui… telemetry     5    
##  7 mari… pollack     acti… gadi… gadid… poll… pollac… telemetry     2    
##  8 mari… saithe      acti… gadi… gadid… poll… virens  telemetry     2    
##  9 mari… lined surg… acti… perc… acant… acan… lineat… direct obser… <NA> 
## 10 mari… orangespin… acti… perc… acant… naso  litura… telemetry     8    
## # … with 559 more rows, and 15 more variables: mean.mass.g <dbl>,
## #   log10.mass <dbl>, alternative.mass.reference <chr>, mean.hra.m2 <dbl>,
## #   log10.hra <dbl>, hra.reference <chr>, realm <chr>,
## #   thermoregulation <chr>, locomotion <chr>, trophic.guild <chr>,
## #   dimension <chr>, preymass <dbl>, log10.preymass <dbl>, PPMR <dbl>,
## #   prey.size.reference <chr>
```
…
```r
mammals <- 
  homerange %>% 
  filter(taxon=="mammals") %>% 
  select(common.name, family, genus, species, trophic.guild, mean.mass.g, log10.mass, mean.hra.m2, log10.hra, preymass, log10.preymass)
```


```r
mammals
```

```
## # A tibble: 238 x 11
##    common.name family genus species trophic.guild mean.mass.g log10.mass
##    <chr>       <chr>  <chr> <chr>   <chr>               <dbl>      <dbl>
##  1 giant gold… chrys… chry… trevel… carnivore            437.       2.64
##  2 Grant's go… chrys… erem… granti  carnivore             23        1.36
##  3 pronghorn   antil… anti… americ… herbivore          46100.       4.66
##  4 impala      bovid… aepy… melamp… herbivore          63504.       4.80
##  5 hartebeest  bovid… alce… busela… herbivore         136000.       5.13
##  6 barbary sh… bovid… ammo… lervia  herbivore         167498.       5.22
##  7 American b… bovid… bison bison   herbivore         629999.       5.80
##  8 European b… bovid… bison bonasus herbivore         628001.       5.80
##  9 goat        bovid… capra hircus  herbivore          51000.       4.71
## 10 Spanish ib… bovid… capra pyrena… herbivore          69499.       4.84
## # … with 228 more rows, and 4 more variables: mean.hra.m2 <dbl>,
## #   log10.hra <dbl>, preymass <dbl>, log10.preymass <dbl>
```
…
##3. Make a barplot that shows the masses of the top 10 smallest mammals in terms of mass. Be sure to use `stat'="identity"`.
## Hard Way

```r
homerange %>% 
  filter(taxon=="mammals") %>% 
  select(common.name, mean.mass.g) %>% 
  arrange (mean.mass.g)
```

```
## # A tibble: 238 x 2
##    common.name                    mean.mass.g
##    <chr>                                <dbl>
##  1 cinereus shrew                        4.17
##  2 slender shrew                         4.37
##  3 arctic shrew                          8.13
##  4 crowned shrew                         9.33
##  5 greater white-footed shrew           10   
##  6 salt marsh harvest mouse             11.0 
##  7 long-clawed shrew                    14.1 
##  8 Northern three-striped opossum       19.5 
##  9 wood mouse                           21.2 
## 10 southern grasshopper mouse           22   
## # … with 228 more rows
```
…
