…
It is true that all of this is redundant, but you want to be able to run multiple checks on the data. Remember, just because your code runs without errors doesn't mean it is doing what you intended.  

## Replacing NA's
Once you have an idea of how NA's are represented in the data, you can replace them with `NA` so that R can better deal with them. The bit of code below is very handy, especially if the data has NA's represented as **actual values that you want replaced** or if you want to make sure any blanks are treated as NA.

```r
msleep_na2 <- 
  msleep %>% 
  na_if("") #replace blank data with NA; replace something with NA
##similar to replacing -999 (some people use this but it can interfere with data calulations) with NA
msleep_na2
```

```
## # A tibble: 83 x 11
##    name  genus vore  order conservation sleep_total sleep_rem sleep_cycle
##    <chr> <chr> <chr> <chr> <chr>              <dbl>     <dbl>       <dbl>
##  1 Chee… Acin… carni Carn… lc                  12.1      NA        NA    
##  2 Owl … Aotus omni  Prim… <NA>                17         1.8      NA    
##  3 Moun… Aplo… herbi Rode… nt                  14.4       2.4      NA    
##  4 Grea… Blar… omni  Sori… lc                  14.9       2.3       0.133
##  5 Cow   Bos   herbi Arti… domesticated         4         0.7       0.667
##  6 Thre… Brad… herbi Pilo… <NA>                14.4       2.2       0.767
##  7 Nort… Call… carni Carn… vu                   8.7       1.4       0.383
##  8 Vesp… Calo… <NA>  Rode… <NA>                 7        NA        NA    
##  9 Dog   Canis carni Carn… domesticated        10.1       2.9       0.333
## 10 Roe … Capr… herbi Arti… lc                   3        NA        NA    
## # … with 73 more rows, and 3 more variables: awake <dbl>, brainwt <dbl>,
## #   bodywt <dbl>
```
…
```r
life_history <- 
  life_history %>% 
  dplyr::rename(
          genus        = Genus,
          wean_mass    = `wean mass`,
          max_life     = `max. life`,
          litter_size  = `litter size`,
          litters_yr   = `litters/year`
          )
life_history
```

```
## # A tibble: 1,440 x 13
##    order family genus species   mass gestation newborn weaning wean_mass
##    <chr> <chr>  <chr> <chr>    <dbl>     <dbl>   <dbl>   <dbl>     <dbl>
##  1 Arti… Antil… Anti… americ… 4.54e4      8.13   3246.    3         8900
##  2 Arti… Bovid… Addax nasoma… 1.82e5      9.39   5480     6.5       -999
##  3 Arti… Bovid… Aepy… melamp… 4.15e4      6.35   5093     5.63     15900
##  4 Arti… Bovid… Alce… busela… 1.50e5      7.9   10167.    6.5       -999
##  5 Arti… Bovid… Ammo… clarkei 2.85e4      6.8    -999  -999         -999
##  6 Arti… Bovid… Ammo… lervia  5.55e4      5.08   3810     4         -999
##  7 Arti… Bovid… Anti… marsup… 3.00e4      5.72   3910     4.04      -999
##  8 Arti… Bovid… Anti… cervic… 3.75e4      5.5    3846     2.13      -999
##  9 Arti… Bovid… Bison bison   4.98e5      8.93  20000    10.7     157500
## 10 Arti… Bovid… Bison bonasus 5.00e5      9.14  23000.    6.6       -999
## # … with 1,430 more rows, and 4 more variables: AFR <dbl>, max_life <dbl>,
## #   litter_size <dbl>, litters_yr <dbl>
```
…
