…
```
## [1] "lakeid"          "fish_id"         "annnumber"       "length"         
## [5] "radii_length_mm" "scalelength"
```

## If we are only interested in fish that come from Alabama lakes, we would use the filter()

```r
filter (fish, lakeid == "AL") ##lakeid represents the lake (state) where the fish is found
```

```
## # A tibble: 383 x 6
##    lakeid fish_id annnumber length radii_length_mm scalelength
##    <chr>    <dbl> <chr>      <dbl>           <dbl>       <dbl>
##  1 AL         299 EDGE         167            2.70        2.70
##  2 AL         299 2            167            2.04        2.70
##  3 AL         299 1            167            1.31        2.70
##  4 AL         300 EDGE         175            3.02        3.02
##  5 AL         300 3            175            2.67        3.02
##  6 AL         300 2            175            2.14        3.02
##  7 AL         300 1            175            1.23        3.02
##  8 AL         301 EDGE         194            3.34        3.34
##  9 AL         301 3            194            2.97        3.34
## 10 AL         301 2            194            2.29        3.34
## # … with 373 more rows
```

```r
## use "==" to indicate which value we are looking for
```

## filter fish frame for scale length greater than or equal to 350

```r
filter (fish, length >=350)
```

```
## # A tibble: 890 x 6
##    lakeid fish_id annnumber length radii_length_mm scalelength
##    <chr>    <dbl> <chr>      <dbl>           <dbl>       <dbl>
##  1 AL         306 EDGE         350            6.94        6.94
##  2 AL         306 10           350            6.46        6.94
##  3 AL         306 9            350            6.16        6.94
##  4 AL         306 8            350            5.88        6.94
##  5 AL         306 7            350            5.42        6.94
##  6 AL         306 6            350            4.90        6.94
##  7 AL         306 5            350            4.46        6.94
##  8 AL         306 4            350            3.75        6.94
##  9 AL         306 3            350            2.93        6.94
## 10 AL         306 2            350            2.14        6.94
## # … with 880 more rows
```
…
##"!" means not. Filter fish for lengths that are not 175

```r
filter (fish, !length==175)
```

```
## # A tibble: 4,021 x 6
##    lakeid fish_id annnumber length radii_length_mm scalelength
##    <chr>    <dbl> <chr>      <dbl>           <dbl>       <dbl>
##  1 AL         299 EDGE         167            2.70        2.70
##  2 AL         299 2            167            2.04        2.70
##  3 AL         299 1            167            1.31        2.70
##  4 AL         301 EDGE         194            3.34        3.34
##  5 AL         301 3            194            2.97        3.34
##  6 AL         301 2            194            2.29        3.34
##  7 AL         301 1            194            1.55        3.34
##  8 AL         302 EDGE         324            6.07        6.07
##  9 AL         302 9            324            5.73        6.07
## 10 AL         302 8            324            5.41        6.07
## # … with 4,011 more rows
```

## Practice
## 1. Filter the `fish` data to include the samples from lake `DY`

```r
filter(fish, lakeid=="DY")
```

```
## # A tibble: 355 x 6
##    lakeid fish_id annnumber length radii_length_mm scalelength
##    <chr>    <dbl> <chr>      <dbl>           <dbl>       <dbl>
##  1 DY         359 EDGE         124           1.68         1.68
##  2 DY         359 2            124           1.35         1.68
##  3 DY         359 1            124           0.594        1.68
##  4 DY         360 EDGE         233           3.85         3.85
##  5 DY         360 6            233           3.34         3.85
##  6 DY         360 5            233           3.03         3.85
##  7 DY         360 4            233           2.60         3.85
##  8 DY         360 3            233           2.24         3.85
##  9 DY         360 2            233           1.71         3.85
## 10 DY         360 1            233           0.832        3.85
## # … with 345 more rows
```

## 2. Filter the data to include all lakes except AL.

```r
filter(fish, !lakeid=="AL")
```

```
## # A tibble: 3,650 x 6
##    lakeid fish_id annnumber length radii_length_mm scalelength
##    <chr>    <dbl> <chr>      <dbl>           <dbl>       <dbl>
##  1 AR         269 EDGE         140            2.01        2.01
##  2 AR         269 1            140            1.48        2.01
##  3 AR         270 EDGE         193            2.66        2.66
##  4 AR         270 3            193            2.39        2.66
##  5 AR         270 2            193            2.03        2.66
##  6 AR         270 1            193            1.42        2.66
##  7 AR         271 EDGE         220            3.50        3.50
##  8 AR         271 5            220            3.13        3.50
##  9 AR         271 4            220            2.86        3.50
## 10 AR         271 3            220            2.63        3.50
## # … with 3,640 more rows
```

```r
## returns data frame for all fish not from Alabama
```

##3. Filter the data to include all lakes except AL and DY.

```r
filter (fish, !lakeid=="AL" & !lakeid=="DY")
```

```
## # A tibble: 3,295 x 6
##    lakeid fish_id annnumber length radii_length_mm scalelength
##    <chr>    <dbl> <chr>      <dbl>           <dbl>       <dbl>
##  1 AR         269 EDGE         140            2.01        2.01
##  2 AR         269 1            140            1.48        2.01
##  3 AR         270 EDGE         193            2.66        2.66
##  4 AR         270 3            193            2.39        2.66
##  5 AR         270 2            193            2.03        2.66
##  6 AR         270 1            193            1.42        2.66
##  7 AR         271 EDGE         220            3.50        3.50
##  8 AR         271 5            220            3.13        3.50
##  9 AR         271 4            220            2.86        3.50
## 10 AR         271 3            220            2.63        3.50
## # … with 3,285 more rows
```

```r
## won't print fish data if it comes from AL or from DY
```

##4. Filter the data to include all fish with a scale length greater than or equal to 11.

```r
filter(fish, length >=11)
```

```
## # A tibble: 4,033 x 6
##    lakeid fish_id annnumber length radii_length_mm scalelength
##    <chr>    <dbl> <chr>      <dbl>           <dbl>       <dbl>
##  1 AL         299 EDGE         167            2.70        2.70
##  2 AL         299 2            167            2.04        2.70
##  3 AL         299 1            167            1.31        2.70
##  4 AL         300 EDGE         175            3.02        3.02
##  5 AL         300 3            175            2.67        3.02
##  6 AL         300 2            175            2.14        3.02
##  7 AL         300 1            175            1.23        3.02
##  8 AL         301 EDGE         194            3.34        3.34
##  9 AL         301 3            194            2.97        3.34
## 10 AL         301 2            194            2.29        3.34
## # … with 4,023 more rows
```
…
## Pipes: used for cleaning up code

```r
fish %>%
  filter(lakeid == "AL")
```

```
## # A tibble: 383 x 6
##    lakeid fish_id annnumber length radii_length_mm scalelength
##    <chr>    <dbl> <chr>      <dbl>           <dbl>       <dbl>
##  1 AL         299 EDGE         167            2.70        2.70
##  2 AL         299 2            167            2.04        2.70
##  3 AL         299 1            167            1.31        2.70
##  4 AL         300 EDGE         175            3.02        3.02
##  5 AL         300 3            175            2.67        3.02
##  6 AL         300 2            175            2.14        3.02
##  7 AL         300 1            175            1.23        3.02
##  8 AL         301 EDGE         194            3.34        3.34
##  9 AL         301 3            194            2.97        3.34
## 10 AL         301 2            194            2.29        3.34
## # … with 373 more rows
```

```r
  ## pipe = %>%
```

## select (); similar to pipes; allows us to only look at desired data sets

```r
fish %>% 
  select(lakeid, scalelength)
```

```
## # A tibble: 4,033 x 2
##    lakeid scalelength
##    <chr>        <dbl>
##  1 AL            2.70
##  2 AL            2.70
##  3 AL            2.70
##  4 AL            3.02
##  5 AL            3.02
##  6 AL            3.02
##  7 AL            3.02
##  8 AL            3.34
##  9 AL            3.34
## 10 AL            3.34
## # … with 4,023 more rows
```
…
