…
```r
library(tidyverse)
library(skimr)
```


```r
homerange <- 
  readr::read_csv("~/Desktop/FRS_417/class_files-master/data/Tamburelloetal_HomeRangeDatabase.csv", na = c("", " ", "NA", "#N/A", "-999"))
## if we have knowledge of how NA's are represented in the data, we can add the tag line while reading in data, so R can interpret all NAs. Since NA is represented by blanks (""), -999, NA of "#N/A", we can understand that these represent null values. AUTOMATICALLY READ IN DATA CORRECTLY!
homerange
```

```
## # A tibble: 569 x 24
##    taxon common.name class order family genus species primarymethod N    
##    <chr> <chr>       <chr> <chr> <chr>  <chr> <chr>   <chr>         <chr>
##  1 lake… american e… acti… angu… angui… angu… rostra… telemetry     16   
##  2 rive… blacktail … acti… cypr… catos… moxo… poecil… mark-recaptu… <NA> 
##  3 rive… central st… acti… cypr… cypri… camp… anomal… mark-recaptu… 20   
##  4 rive… rosyside d… acti… cypr… cypri… clin… fundul… mark-recaptu… 26   
##  5 rive… longnose d… acti… cypr… cypri… rhin… catara… mark-recaptu… 17   
##  6 rive… muskellunge acti… esoc… esoci… esox  masqui… telemetry     5    
##  7 mari… pollack     acti… gadi… gadid… poll… pollac… telemetry     2    
##  8 mari… saithe      acti… gadi… gadid… poll… virens  telemetry     2    
##  9 mari… lined surg… acti… perc… acant… acan… lineat… direct obser… <NA> 
## 10 mari… orangespin… acti… perc… acant… naso  litura… telemetry     8    
## # … with 559 more rows, and 15 more variables: mean.mass.g <dbl>,
## #   log10.mass <dbl>, alternative.mass.reference <chr>, mean.hra.m2 <dbl>,
## #   log10.hra <dbl>, hra.reference <chr>, realm <chr>,
## #   thermoregulation <chr>, locomotion <chr>, trophic.guild <chr>,
## #   dimension <chr>, preymass <dbl>, log10.preymass <dbl>, PPMR <dbl>,
## #   prey.size.reference <chr>
```
…
2. Practice your dplyr skills and filter out carnivorous mammals. 

```r
carni_mammals <- 
  homerange %>% 
  filter(taxon=="mammals", trophic.guild=="carnivore") ##acrni_mammals will contains mammal taxon within carnivorous trophic guild
carni_mammals
```

```
## # A tibble: 80 x 24
##    taxon common.name class order family genus species primarymethod N    
##    <chr> <chr>       <chr> <chr> <chr>  <chr> <chr>   <chr>         <chr>
##  1 mamm… giant gold… mamm… afro… chrys… chry… trevel… telemetry*    <NA> 
##  2 mamm… Grant's go… mamm… afro… chrys… erem… granti  telemetry*    <NA> 
##  3 mamm… arctic fox  mamm… carn… canid… alop… lagopus telemetry*    <NA> 
##  4 mamm… Ethiopian … mamm… carn… canid… canis simens… telemetry*    <NA> 
##  5 mamm… culpeo      mamm… carn… canid… pseu… culpae… telemetry*    <NA> 
##  6 mamm… South Amer… mamm… carn… canid… pseu… griseus telemetry*    <NA> 
##  7 mamm… kit fox     mamm… carn… canid… vulp… macroti telemetry*    <NA> 
##  8 mamm… Ruppel's f… mamm… carn… canid… vulp… ruppel… telemetry*    <NA> 
##  9 mamm… swift fox   mamm… carn… canid… vulp… velox   telemetry*    <NA> 
## 10 mamm… fossa       mamm… carn… euple… cryp… ferox   telemetry*    <NA> 
## # … with 70 more rows, and 15 more variables: mean.mass.g <dbl>,
## #   log10.mass <dbl>, alternative.mass.reference <chr>, mean.hra.m2 <dbl>,
## #   log10.hra <dbl>, hra.reference <chr>, realm <chr>,
## #   thermoregulation <chr>, locomotion <chr>, trophic.guild <chr>,
## #   dimension <chr>, preymass <dbl>, log10.preymass <dbl>, PPMR <dbl>,
## #   prey.size.reference <chr>
```
…
